<?xml version="1.0" encoding="UTF-8"?>
<svg fill="none" viewBox="0 0 231 53" xmlns="http://www.w3.org/2000/svg">
<path d="m220.61 52.512h-193.96c-7.1306 0-19.599 2.3386-23.457-5.2704-3.1397-6.2182-3.3281-30.6 1.9117-35.72 4.7026-4.6294 16.661-2.5772 22.501-2.5772h172.8c7.13 0 22.585-2.7272 27.434 3.9272 5.233 7.2068 4.737 39.641-7.222 39.641z" fill="#8B4D00" opacity=".3"/>
<path d="m215.64 45.216h-190.4c-6.9998 0-19.239 2.3492-23.027-5.2944-3.0821-6.2463-3.267-30.739 1.8767-35.882 4.6163-4.6505 16.356-2.589 22.088-2.589h169.63c6.999 0 22.17-2.7396 26.93 3.9451 5.137 7.2395 4.651 39.821-7.089 39.821z" fill="url(#b)"/>
<path d="m193.67 40.852c-0.263-0.0245-0.506-0.1505-0.677-0.3513-0.172-0.2008-0.258-0.4606-0.241-0.724 0-0.1233 0-0.2398 0.035-0.3562 0.024-0.2625 0.15-0.505 0.352-0.6745 0.202-0.1696 0.463-0.2525 0.726-0.2309 0.262 0.0217 0.506 0.1463 0.677 0.3466 0.172 0.2003 0.257 0.4602 0.238 0.7232v0.3561c-0.028 0.2674-0.16 0.513-0.368 0.6836-0.208 0.1705-0.474 0.2522-0.742 0.2274zm3.343-1.7877c-0.089-0.0881-0.208-0.1397-0.333-0.1447-0.125-0.0049-0.247 0.0372-0.343 0.1181-0.095 0.0808-0.157 0.1945-0.173 0.3187-0.015 0.1241 0.016 0.2496 0.088 0.3518 0.089 0.0881 0.208 0.1398 0.333 0.1447s0.247-0.0372 0.343-0.118c0.095-0.0809 0.157-0.1946 0.172-0.3188 0.016-0.1241-0.015-0.2496-0.087-0.3518zm-0.295-4.9998c-0.086-0.1017-0.209-0.165-0.342-0.1759s-0.265 0.0314-0.367 0.1177-0.165 0.2094-0.176 0.3424c-0.011 0.1329 0.032 0.2647 0.118 0.3665 0.086 0.1017 0.209 0.165 0.342 0.1759s0.265-0.0314 0.367-0.1177c0.101-0.0863 0.165-0.2095 0.176-0.3424s-0.032-0.2648-0.118-0.3665zm-0.562-6.082-0.164-0.1918c-0.089-0.0881-0.207-0.1398-0.332-0.1447-0.126-5e-3 -0.248 0.0372-0.343 0.118-0.096 0.0809-0.158 0.1946-0.173 0.3188-0.016 0.1241 0.015 0.2496 0.088 0.3517l0.157 0.1918c0.086 0.1017 0.208 0.1654 0.34 0.1769 0.133 0.0116 0.264-0.0299 0.366-0.1153 0.101-0.0853 0.165-0.2076 0.177-0.3399 0.011-0.1323-0.03-0.2638-0.116-0.3655zm-6.267-10.109c-0.045-0.0499-0.099-0.0905-0.16-0.1194-0.06-0.0289-0.126-0.0456-0.193-0.0491s-0.134 0.0063-0.198 0.0287c-0.063 0.0225-0.121 0.0572-0.171 0.1021-0.05 0.045-0.091 0.0994-0.12 0.16-0.028 0.0607-0.045 0.1264-0.049 0.1935-3e-3 0.0671 7e-3 0.1343 0.029 0.1976 0.023 0.0633 0.057 0.1216 0.102 0.1715 0.091 0.1008 0.218 0.1614 0.354 0.1685 0.135 0.0071 0.268-0.04 0.369-0.1308s0.161-0.218 0.168-0.3535-0.04-0.2683-0.131-0.3691zm-5.705 7.4107c0.074-0.0828 0.115-0.1901 0.115-0.3013s-0.041-0.2185-0.115-0.3014c-0.085-0.1017-0.208-0.1653-0.34-0.1769s-0.264 0.0299-0.365 0.1153c-0.102 0.0854-0.166 0.2076-0.177 0.3399-0.012 0.1323 0.03 0.2638 0.115 0.3655 0.068 0.0888 0.167 0.1492 0.277 0.1694 0.11 0.0203 0.224-1e-3 0.319-0.0598 0.037-0.0117 0.072-0.0312 0.101-0.0571 0.03-0.026 0.054-0.0579 0.07-0.0936zm3.007-0.5342c-0.037-0.042-0.088-0.0689-0.144-0.0753 0.039-0.1172 0.046-0.2427 0.019-0.3632-0.027-0.1206-0.085-0.2317-0.17-0.3217-0.134-0.133-0.313-0.2108-0.501-0.218-0.189-0.0072-0.373 0.0566-0.517 0.1789s-0.237 0.2941-0.26 0.4814c-0.023 0.1874 0.025 0.3766 0.135 0.5302 0.059 0.0792 0.135 0.1445 0.223 0.1913 0.087 0.0468 0.184 0.0741 0.283 0.08 0.099 0.0058 0.198-0.0099 0.29-0.0461 0.093-0.0361 0.176-0.092 0.245-0.1635 0.219 0.3013 0.602-0.0274 0.397-0.274zm-0.829-2.904-0.157-0.1918c-0.132-0.145-0.314-0.2338-0.509-0.2478s-0.389 0.0478-0.539 0.1725c-0.149 0.1319-0.24 0.3162-0.256 0.5142-0.015 0.198 0.047 0.3942 0.174 0.5474l0.157 0.1849c0.128 0.1517 0.311 0.2463 0.509 0.263s0.394-0.0459 0.546-0.1739c0.151-0.1281 0.246-0.3112 0.263-0.509 0.016-0.1978-0.046-0.3941-0.174-0.5458l-0.014-0.0137zm1.781-2.1643c-0.133-0.1465-0.316-0.2372-0.513-0.2537s-0.393 0.0423-0.549 0.1646l-0.185 0.1644c-0.075 0.0634-0.137 0.141-0.182 0.2283-0.045 0.0874-0.072 0.1827-0.081 0.2807-8e-3 0.0979 3e-3 0.1965 0.033 0.2902 0.03 0.0936 0.078 0.1805 0.141 0.2556 0.064 0.0751 0.141 0.137 0.229 0.1821 0.087 0.0451 0.182 0.0726 0.28 0.0808 0.098 0.0083 0.197-0.0028 0.29-0.0326 0.094-0.0299 0.181-0.0779 0.256-0.1413l0.192-0.1575c0.151-0.13 0.245-0.3141 0.261-0.5126 0.017-0.1986-0.045-0.3957-0.172-0.549zm3.527 0.2945c-0.214-0.2543-0.521-0.4131-0.852-0.4413-0.332-0.0283-0.661 0.0763-0.915 0.2906-0.254 0.2144-0.413 0.5209-0.441 0.8523s0.076 0.6605 0.29 0.9148c0.215 0.2543 0.521 0.413 0.853 0.4413 0.331 0.0282 0.66-0.0763 0.915-0.2906 0.254-0.2144 0.413-0.521 0.441-0.8524s-0.076-0.6604-0.291-0.9147zm-2.863 2.4246c-0.102-0.1122-0.235-0.1912-0.383-0.2268-0.147-0.0357-0.302-0.0264-0.444 0.0266-0.142 0.0531-0.266 0.1474-0.354 0.271-0.088 0.1235-0.137 0.2706-0.141 0.4223-0.017 0.0278-0.029 0.0588-0.034 0.0911-5e-3 0.0324-4e-3 0.0655 4e-3 0.0974 7e-3 0.0319 0.021 0.0619 0.041 0.0884 0.019 0.0264 0.043 0.0487 0.072 0.0656l0.089 0.1369c0.13 0.1491 0.313 0.241 0.51 0.2559 0.197 0.015 0.393-0.0481 0.544-0.1758s0.245-0.3096 0.264-0.5065c0.018-0.197-0.042-0.3931-0.168-0.5461zm2.206 3.3766c-0.216-0.2534-0.523-0.4109-0.854-0.4379s-0.66 0.0788-0.913 0.294c-0.254 0.2153-0.411 0.5224-0.438 0.8538s0.079 0.6599 0.294 0.9133 0.522 0.4109 0.854 0.4379c0.331 0.027 0.659-0.0788 0.913-0.294 0.253-0.2153 0.411-0.5224 0.438-0.8538s-0.079-0.6599-0.294-0.9133zm-3.678 1.4725-0.158-0.1917c-0.134-0.133-0.313-0.2108-0.502-0.218-0.188-0.0072-0.373 0.0566-0.516 0.1789-0.144 0.1223-0.237 0.2941-0.26 0.4814-0.023 0.1874 0.025 0.3766 0.134 0.5302l0.158 0.1918c0.061 0.0849 0.138 0.1563 0.228 0.2097 0.089 0.0533 0.189 0.0875 0.293 0.1003 0.103 0.0128 0.208 4e-3 0.308-0.0259s0.193-0.0802 0.272-0.1478c0.08-0.0676 0.144-0.1509 0.19-0.2448 0.045-0.0938 0.071-0.1961 0.075-0.3003s-0.014-0.2082-0.052-0.3052c-0.038-0.0971-0.096-0.1851-0.17-0.2586zm-1.966 2.3219c-0.085-0.1003-0.189-0.1829-0.306-0.243s-0.244-0.0966-0.375-0.1074c-0.131-0.0109-0.263 0.0042-0.388 0.0444-0.126 0.0401-0.242 0.1046-0.342 0.1896-0.1 0.0849-0.183 0.1889-0.243 0.3058s-0.097 0.2445-0.107 0.3755c-0.011 0.131 4e-3 0.2629 0.044 0.3881 0.04 0.1251 0.105 0.2412 0.19 0.3415s0.189 0.1828 0.305 0.2429c0.117 0.0602 0.245 0.0967 0.376 0.1075s0.263-0.0043 0.388-0.0444c0.125-0.0402 0.241-0.1046 0.342-0.1896 0.1-0.085 0.182-0.1889 0.243-0.3058 0.06-0.1169 0.096-0.2445 0.107-0.3755 0.011-0.1311-4e-3 -0.2629-0.044-0.3881-0.041-0.1252-0.105-0.2412-0.19-0.3415zm0.418 3.5889-0.192 0.1644c-0.088 0.0888-0.14 0.2074-0.145 0.3325-5e-3 0.125 0.037 0.2473 0.118 0.3428s0.195 0.1572 0.319 0.1729c0.124 0.0158 0.25-0.0156 0.352-0.088l0.192-0.1643c0.088-0.0888 0.139-0.2075 0.144-0.3325s-0.037-0.2474-0.118-0.3429-0.194-0.1572-0.318-0.1729c-0.125-0.0157-0.25 0.0157-0.352 0.088zm5.027 5.7053c-0.221 0.1886-0.508 0.2821-0.798 0.2603s-0.559-0.1572-0.75-0.3767c-0.168-0.2039-0.25-0.4656-0.229-0.7292 0.022-0.2636 0.146-0.5082 0.346-0.6817l0.075-0.0617s0.048-0.0548 0.075-0.0753c0.204-0.1685 0.466-0.2507 0.729-0.2289 0.264 0.0217 0.509 0.1457 0.682 0.3453 0.185 0.2237 0.276 0.5111 0.251 0.8005-0.024 0.2894-0.161 0.5578-0.381 0.7474zm-1.075-4.1094c-0.085-0.1003-0.189-0.1829-0.306-0.243s-0.245-0.0967-0.376-0.1075-0.262 0.0043-0.388 0.0445c-0.125 0.0401-0.241 0.1045-0.341 0.1895s-0.183 0.1889-0.243 0.3058-0.097 0.2445-0.108 0.3756c-0.01 0.131 5e-3 0.2628 0.045 0.388s0.104 0.2413 0.189 0.3415c0.176 0.2044 0.425 0.3307 0.693 0.3513 0.269 0.0205 0.535-0.0664 0.739-0.2417s0.331-0.4246 0.351-0.693c0.021-0.2685-0.066-0.5341-0.242-0.7384l-0.013 0.0274zm4.554 0.7328c-1.246-1.4725-3.541 0.4658-2.294 1.9383 1.246 1.4726 3.548-0.4863 2.294-1.9657v0.0274zm-0.178-2.8561c0.013-0.1346-2e-3 -0.2703-0.043-0.3993-0.041-0.1289-0.107-0.2484-0.194-0.3517-0.087-0.1032-0.194-0.1881-0.314-0.2496-0.121-0.0616-0.252-0.0986-0.387-0.1089h-0.349c-0.132-0.0121-0.264 0.0021-0.39 0.0415-0.127 0.0395-0.243 0.1036-0.345 0.1885-0.101 0.085-0.184 0.1891-0.245 0.3065-0.06 0.1173-0.097 0.2455-0.108 0.3771s4e-3 0.2641 0.045 0.3898 0.106 0.242 0.192 0.3424c0.085 0.1004 0.19 0.1827 0.308 0.2423s0.247 0.0953 0.378 0.105h0.35c0.266 0.023 0.531-0.0596 0.737-0.23s0.338-0.4149 0.365-0.681v0.0274zm-0.897-3.4245c-0.128-0.1517-0.311-0.2463-0.509-0.263s-0.394 0.0459-0.546 0.1739c-0.151 0.1281-0.246 0.3112-0.263 0.509-0.016 0.1978 0.046 0.3941 0.174 0.5458 0.135 0.1517 0.324 0.2437 0.526 0.256 0.202 0.0122 0.401-0.0565 0.553-0.1909s0.244-0.3236 0.256-0.5259-0.056-0.4012-0.191-0.5529v0.048zm-3.075 0.6301c-1.452-1.7191-4.11 0.5411-2.671 2.2671 1.438 1.7259 4.137-0.5891 2.671-2.315v0.0479zm7.26-10.465c-0.175-0.1885-0.415-0.3024-0.672-0.3181-0.257-0.0158-0.509 0.0679-0.706 0.2335-0.196 0.1657-0.321 0.4007-0.349 0.6562s0.043 0.5119 0.2 0.716c0.174 0.1884 0.415 0.3024 0.671 0.3181 0.257 0.0157 0.51-0.0679 0.706-0.2336 0.197-0.1656 0.322-0.4006 0.35-0.6561s-0.044-0.5119-0.2-0.716zm-1.089 4.8765c0.051-0.6605-0.16-1.3145-0.589-1.8198-0.428-0.5053-1.039-0.8211-1.699-0.8787-0.661-0.0453-1.315 0.1629-1.828 0.5822l-0.192 0.1643c-0.506 0.4375-0.822 1.0535-0.884 1.7192-0.051 0.6604 0.161 1.3145 0.589 1.8198s1.039 0.8211 1.699 0.8787c0.661 0.0453 1.315-0.1629 1.829-0.5822l0.191-0.1643c0.501-0.4355 0.817-1.0453 0.884-1.7055v-0.0137zm23.903 6.9519c-0.171-0.2026-0.416-0.3286-0.681-0.3505-0.265-0.0218-0.527 0.0624-0.73 0.234-0.202 0.1717-0.328 0.4168-0.35 0.6814s0.062 0.527 0.234 0.7296c0.176 0.1786 0.414 0.2843 0.664 0.296 0.251 0.0118 0.497-0.0713 0.69-0.2326 0.192-0.1614 0.317-0.3892 0.349-0.6383 0.032-0.249-0.031-0.501-0.176-0.7059v-0.0137zm-0.685 3.4999c-1.246-1.4726-3.541 0.4657-2.287 1.9383 1.253 1.4725 3.575-0.4521 2.322-1.9246l-0.035-0.0137zm-5.363 2.5752-0.116 0.0959c-0.202 0.1717-0.329 0.4168-0.35 0.6814-0.022 0.2646 0.062 0.527 0.234 0.7295 0.171 0.2026 0.416 0.3286 0.681 0.3505 0.265 0.0218 0.527-0.0624 0.73-0.234l0.116-0.0959c0.152-0.1795 0.236-0.4068 0.236-0.6419 1e-3 -0.2351-0.081-0.4631-0.231-0.6438-0.15-0.1806-0.36-0.3025-0.591-0.3442-0.232-0.0417-0.47-6e-4 -0.674 0.1162l-0.035-0.0137zm-0.849 1.7055c-0.128-0.1517-0.311-0.2463-0.509-0.263s-0.394 0.0459-0.546 0.1739c-0.151 0.1281-0.246 0.3112-0.263 0.509-0.016 0.1978 0.046 0.3941 0.174 0.5458 0.127 0.1562 0.31 0.2559 0.51 0.2771 0.199 0.0212 0.399-0.0379 0.555-0.1641 0.157-0.1263 0.256-0.3094 0.278-0.5091 0.021-0.1998-0.038-0.3997-0.165-0.5559l-0.034-0.0137zm-7.123 2.4245-0.103-0.1164c-0.134-0.1329-0.313-0.2107-0.501-0.218-0.189-0.0072-0.373 0.0566-0.517 0.1789s-0.237 0.2941-0.26 0.4815c-0.023 0.1873 0.025 0.3765 0.135 0.5302l0.095 0.1164c0.063 0.0778 0.141 0.1425 0.229 0.1902 0.088 0.0478 0.185 0.0778 0.284 0.0883 0.1 0.0105 0.2 0.0013 0.296-0.0271s0.186-0.0754 0.263-0.1384c0.078-0.0629 0.143-0.1406 0.191-0.2285 0.047-0.088 0.077-0.1845 0.088-0.284 0.01-0.0996 1e-3 -0.2002-0.027-0.2961-0.029-0.096-0.076-0.1855-0.139-0.2633l-0.034-0.0137zm4.247-1.952-0.165-0.1917c-0.127-0.1507-0.283-0.2748-0.458-0.3653s-0.367-0.1456-0.563-0.1621c-0.197-0.0165-0.394 0.0058-0.582 0.0657-0.188 0.06-0.363 0.1563-0.513 0.2836-0.151 0.1273-0.275 0.283-0.365 0.4582-0.091 0.1752-0.146 0.3666-0.163 0.5631-0.016 0.1965 6e-3 0.3944 0.066 0.5823s0.156 0.3621 0.284 0.5128l0.164 0.1917c0.127 0.1507 0.283 0.2748 0.458 0.3653 0.176 0.0905 0.367 0.1456 0.563 0.1621 0.197 0.0165 0.395-0.0058 0.583-0.0657 0.188-0.06 0.362-0.1563 0.513-0.2836 0.15-0.1273 0.274-0.283 0.365-0.4582 0.09-0.1752 0.145-0.3666 0.162-0.5631 0.016-0.1965-6e-3 -0.3944-0.066-0.5823s-0.156-0.3621-0.283-0.5128zm-5.836-0.3082-0.164-0.1917c-0.129-0.1506-0.312-0.2443-0.509-0.261-0.198-0.0167-0.394 0.0451-0.546 0.1719-0.149 0.131-0.242 0.3148-0.259 0.5128-0.016 0.1981 0.044 0.3948 0.17 0.5488l0.164 0.1918c0.134 0.1329 0.313 0.2107 0.502 0.218 0.189 0.0072 0.373-0.0566 0.517-0.1789s0.236-0.2941 0.26-0.4815c0.023-0.1873-0.025-0.3765-0.135-0.5302zm-2.5-0.5616c0.018-0.2642-0.069-0.5248-0.24-0.7267s-0.414-0.3294-0.678-0.3555h-0.349c-0.131-0.012-0.264 0.0021-0.39 0.0416s-0.243 0.1036-0.344 0.1885c-0.101 0.085-0.185 0.1891-0.245 0.3064-0.061 0.1173-0.098 0.2455-0.109 0.3772-0.011 0.1316 5e-3 0.2641 0.045 0.3897 0.041 0.1257 0.106 0.2421 0.192 0.3425 0.086 0.1003 0.191 0.1827 0.309 0.2423s0.246 0.0953 0.378 0.1049h0.349c0.267 0.027 0.533-0.052 0.742-0.2198 0.209-0.1679 0.343-0.4112 0.374-0.6774l-0.034-0.0137zm5.452-0.9589c0.018-0.2631-0.068-0.5227-0.237-0.7245-0.17-0.2017-0.412-0.3299-0.674-0.3576h-0.356c-0.132-0.0121-0.264 0.0021-0.39 0.0415-0.126 0.0395-0.243 0.1036-0.344 0.1885-0.101 0.085-0.185 0.1891-0.245 0.3064-0.061 0.1174-0.098 0.2455-0.109 0.3772-0.011 0.1316 5e-3 0.2641 0.045 0.3898 0.041 0.1256 0.106 0.242 0.192 0.3424s0.191 0.1827 0.309 0.2423c0.117 0.0596 0.246 0.0953 0.378 0.105h0.356c0.263 0.0208 0.524-0.0632 0.725-0.2339 0.202-0.1706 0.327-0.414 0.35-0.6771zm-3.226-1.1301c-0.086-0.1017-0.209-0.165-0.342-0.1759s-0.265 0.0314-0.367 0.1177c-0.101 0.0863-0.165 0.2095-0.176 0.3424s0.032 0.2648 0.118 0.3665c0.043 0.0504 0.095 0.0918 0.154 0.122s0.123 0.0485 0.188 0.0539c0.066 0.0054 0.133-0.0022 0.195-0.0224 0.063-0.0202 0.122-0.0526 0.172-0.0953s0.092-0.0949 0.122-0.1537c0.03-0.0587 0.048-0.1228 0.054-0.1887 5e-3 -0.0658-2e-3 -0.132-0.023-0.1949-0.02-0.0629-0.052-0.1212-0.095-0.1716zm-2.253-1.0958-0.185 0.1644c-0.088 0.0888-0.14 0.2074-0.145 0.3324-5e-3 0.1251 0.037 0.2474 0.118 0.3429s0.195 0.1572 0.319 0.1729 0.25-0.0157 0.352-0.088l0.192-0.1644c0.52-0.4109-0.131-1.178-0.651-0.7602zm-1.541-0.6849c-0.172-0.2026-0.417-0.3286-0.682-0.3505-0.264-0.0218-0.527 0.0624-0.729 0.234-0.203 0.1717-0.329 0.4168-0.351 0.6814-0.021 0.2646 0.063 0.527 0.234 0.7295 0.169 0.2062 0.413 0.3368 0.679 0.3632 0.265 0.0263 0.53-0.0538 0.736-0.2228 0.206-0.1689 0.337-0.4128 0.363-0.678 0.026-0.2653-0.054-0.5301-0.223-0.7363l-0.027-0.0205zm-0.795-3.2602c-0.085-0.1003-0.189-0.1829-0.306-0.243-0.116-0.0601-0.244-0.0966-0.375-0.1074-0.265-0.0219-0.527 0.0623-0.73 0.234-0.202 0.1716-0.328 0.4167-0.35 0.6813s0.062 0.527 0.234 0.7296c0.084 0.1021 0.187 0.1867 0.303 0.249s0.244 0.1011 0.375 0.1141 0.264 1e-4 0.39-0.0381c0.127-0.0383 0.244-0.101 0.346-0.1846 0.102-0.0837 0.187-0.1866 0.249-0.303 0.063-0.1163 0.101-0.2438 0.114-0.3751s0-0.264-0.038-0.3903-0.101-0.2439-0.184-0.346l-0.028-0.0205zm1.165 0.9863-0.192 0.1575c-0.102 0.0854-0.166 0.2077-0.177 0.34-0.012 0.1323 0.03 0.2637 0.115 0.3654 0.086 0.1018 0.208 0.1654 0.34 0.177 0.132 0.0115 0.264-0.0299 0.366-0.1153l0.191-0.1644c0.062-0.0898 0.093-0.1975 0.088-0.3064-5e-3 -0.109-0.045-0.2134-0.115-0.2972s-0.165-0.1424-0.272-0.167c-0.106-0.0246-0.217-0.0137-0.317 0.0309l-0.027-0.0205zm0.39-2.6301c-0.129-0.1505-0.312-0.2443-0.509-0.261-0.197-0.0166-0.394 0.0451-0.546 0.172l-0.191 0.1643c-0.151 0.1288-0.245 0.3117-0.261 0.5092-0.017 0.1974 0.045 0.3934 0.171 0.5456 0.131 0.1495 0.315 0.2423 0.513 0.2589s0.395-0.0443 0.549-0.1699l0.192-0.1643c0.148-0.1253 0.241-0.3026 0.262-0.4952 0.02-0.1926-0.034-0.3856-0.153-0.539l-0.027-0.0206zm-1.151-2.904c-0.261-0.297-0.628-0.4813-1.022-0.5145s-0.786 0.0874-1.094 0.3364l-0.185 0.1644c-0.157 0.1249-0.288 0.2803-0.384 0.4568-0.097 0.1765-0.156 0.3705-0.176 0.5706s1e-3 0.4021 0.06 0.594c0.06 0.1919 0.158 0.3699 0.288 0.5233s0.289 0.279 0.469 0.3696c0.179 0.0905 0.375 0.144 0.576 0.1574 0.201 0.0133 0.402-0.0138 0.592-0.0798s0.364-0.1695 0.513-0.3043l0.192-0.1575c0.299-0.2608 0.484-0.628 0.516-1.0234s-0.091-0.7876-0.345-1.093zm-0.123-2.8698c-0.085-0.1003-0.189-0.1828-0.306-0.243-0.117-0.0601-0.244-0.0966-0.375-0.1074-0.265-0.0219-0.527 0.0623-0.73 0.234-0.202 0.1716-0.328 0.4167-0.35 0.6813s0.062 0.5271 0.234 0.7296c0.171 0.2025 0.417 0.3286 0.681 0.3504 0.265 0.0219 0.527-0.0623 0.73-0.234 0.202-0.1716 0.328-0.4167 0.35-0.6813s-0.062-0.5271-0.234-0.7296zm2.425-1.3698-0.165-0.1849c-0.063-0.0751-0.141-0.137-0.228-0.1821-0.087-0.0452-0.183-0.0726-0.281-0.0809s-0.196 0.0028-0.29 0.0327c-0.093 0.0298-0.18 0.0778-0.255 0.1412-0.076 0.0634-0.137 0.141-0.183 0.2283-0.045 0.0874-0.072 0.1827-0.08 0.2807-9e-3 0.0979 2e-3 0.1965 0.032 0.2902 0.03 0.0936 0.078 0.1805 0.142 0.2556l0.164 0.1918c0.129 0.1505 0.312 0.2443 0.509 0.2609 0.197 0.0167 0.393-0.0451 0.546-0.1719 0.079-0.0642 0.144-0.1437 0.192-0.2337 0.048-0.0901 0.078-0.1889 0.087-0.2905s-3e-3 -0.204-0.035-0.301c-0.031-0.097-0.082-0.1868-0.148-0.2638l-7e-3 0.0274zm-1.644-1.5548c-0.133-0.1465-0.316-0.2371-0.513-0.2537-0.197-0.0165-0.393 0.0424-0.549 0.1647l-0.191 0.1644c-0.151 0.1288-0.245 0.3117-0.261 0.5091-0.017 0.1974 0.045 0.3934 0.171 0.5456 0.131 0.1495 0.315 0.2423 0.513 0.2589s0.395-0.0443 0.549-0.1698l0.192-0.1575c0.079-0.0642 0.145-0.1437 0.193-0.2338 0.048-0.09 0.077-0.1888 0.086-0.2904s-3e-3 -0.204-0.034-0.301c-0.032-0.0971-0.082-0.1868-0.149-0.2639l-7e-3 0.0274zm5.623-3.0821v-0.3561c8e-3 -0.098-3e-3 -0.1967-0.033-0.2904s-0.078-0.1805-0.142-0.2556c-0.064-0.075-0.141-0.1368-0.229-0.1818-0.087-0.045-0.183-0.0723-0.281-0.0804s-0.197 0.0032-0.29 0.0332c-0.094 0.0301-0.181 0.0783-0.256 0.1419s-0.137 0.1413-0.182 0.2288-0.072 0.183-0.08 0.281c0 0.1164 0 0.2329-0.034 0.3562-0.012 0.1969 0.053 0.3908 0.18 0.5413 0.128 0.1505 0.308 0.2461 0.505 0.2669 0.103 0.0123 0.207 0.0033 0.307-0.0263 0.099-0.0296 0.192-0.0794 0.271-0.1461 0.08-0.0668 0.145-0.1491 0.192-0.242 0.046-0.0928 0.073-0.1942 0.079-0.298l-7e-3 0.0274zm-2.294 1.2055-0.165-0.1918c-0.172-0.2012-0.417-0.3263-0.681-0.3481s-0.527 0.0615-0.73 0.2317c-0.198 0.1744-0.321 0.4189-0.342 0.682-0.022 0.2631 0.059 0.5243 0.226 0.7289l0.164 0.1849c0.082 0.1075 0.186 0.1971 0.303 0.2636 0.118 0.0664 0.248 0.1082 0.383 0.1229 0.135 0.0146 0.271 0.0019 0.4-0.0376s0.249-0.1048 0.353-0.192c0.103-0.0872 0.188-0.1945 0.249-0.3154s0.096-0.2528 0.104-0.3879c9e-3 -0.135-0.01-0.2703-0.056-0.3978-0.045-0.1274-0.116-0.2442-0.208-0.3434zm1.157 3.6437c0.013-0.1973-0.051-0.3921-0.178-0.543-0.128-0.1509-0.31-0.246-0.507-0.2652h-0.349c-0.098-0.0085-0.197 0.0023-0.291 0.0319-0.094 0.0297-0.181 0.0775-0.256 0.1408-0.152 0.1278-0.248 0.3108-0.265 0.5088s0.045 0.3947 0.173 0.547c0.128 0.1522 0.311 0.2474 0.509 0.2646h0.356c0.1 0.0104 0.201 9e-4 0.297-0.028 0.096-0.0288 0.186-0.0765 0.264-0.1402 0.077-0.0637 0.142-0.1421 0.189-0.2308s0.076-0.1859 0.085-0.2859h-0.027zm12.13 7.7532c-0.086-0.1017-0.208-0.1654-0.34-0.1769-0.132-0.0116-0.264 0.0299-0.366 0.1153-0.101 0.0853-0.165 0.2076-0.177 0.3399-0.011 0.1323 0.03 0.2638 0.116 0.3655 0.085 0.1017 0.207 0.1654 0.34 0.1769 0.132 0.0116 0.263-0.0299 0.365-0.1152 0.102-0.0854 0.166-0.2077 0.177-0.34 0.012-0.1323-0.03-0.2638-0.115-0.3655zm-0.884 2.0547c-0.171-0.2025-0.416-0.3286-0.681-0.3504s-0.527 0.0623-0.73 0.234c-0.202 0.1717-0.328 0.4167-0.35 0.6813s0.062 0.5271 0.234 0.7296 0.417 0.3286 0.681 0.3504c0.265 0.0219 0.527-0.0623 0.73-0.234 0.202-0.1716 0.328-0.4167 0.35-0.6813s-0.062-0.527-0.234-0.7296zm-1.965 2.3219c-0.134-0.133-0.313-0.2108-0.502-0.218s-0.373 0.0566-0.517 0.1789-0.236 0.2941-0.26 0.4814c-0.023 0.1874 0.025 0.3766 0.135 0.5302 0.134 0.133 0.313 0.2108 0.501 0.218 0.189 0.0072 0.374-0.0566 0.517-0.1789 0.144-0.1223 0.237-0.2941 0.26-0.4814 0.023-0.1874-0.025-0.3766-0.134-0.5302zm-2.22 2.13v-0.3561c0.02-0.2635-0.065-0.5241-0.235-0.7262-0.17-0.2022-0.413-0.3299-0.675-0.356-0.264-0.0155-0.524 0.0712-0.725 0.2421-0.202 0.1709-0.33 0.4129-0.358 0.6757v0.3562c-0.019 0.2629 0.066 0.5228 0.238 0.7231 0.171 0.2004 0.415 0.3249 0.677 0.3466 0.263 0.0217 0.524-0.0613 0.726-0.2308 0.202-0.1696 0.328-0.412 0.352-0.6746zm-3.321-2.0547-0.158-0.1918c-0.172-0.2025-0.417-0.3286-0.681-0.3504-0.265-0.0218-0.527 0.0623-0.73 0.234-0.202 0.1717-0.328 0.4167-0.35 0.6813s0.062 0.5271 0.234 0.7296l0.157 0.1918c0.086 0.1016 0.191 0.1853 0.309 0.2462s0.247 0.0979 0.379 0.1087c0.133 0.0108 0.266-0.0047 0.392-0.0456 0.127-0.0409 0.244-0.1065 0.345-0.1929 0.2-0.1725 0.325-0.416 0.35-0.6792 0.024-0.2631-0.055-0.5254-0.22-0.7317h-0.027zm1.102-2.5684c-0.128-0.1517-0.311-0.2463-0.509-0.263-0.197-0.0167-0.394 0.0459-0.545 0.174-0.152 0.128-0.247 0.3111-0.263 0.5089-0.017 0.1978 0.046 0.3941 0.174 0.5458 0.128 0.1553 0.312 0.2534 0.513 0.2727 0.2 0.0192 0.4-0.0419 0.555-0.1699 0.155-0.1281 0.253-0.3126 0.273-0.513 0.019-0.2004-0.042-0.4002-0.17-0.5555h-0.028zm-2.575-6.9792c-0.13-0.149-0.313-0.241-0.51-0.2559-0.198-0.015-0.393 0.0482-0.544 0.1758-0.151 0.1277-0.246 0.3096-0.264 0.5065-0.018 0.197 0.042 0.3931 0.167 0.5461 0.13 0.149 0.314 0.241 0.511 0.2559 0.197 0.015 0.392-0.0482 0.543-0.1758 0.152-0.1277 0.246-0.3096 0.264-0.5065 0.018-0.197-0.042-0.3931-0.167-0.5461zm-0.603 5.0957c-2.054-2.452-5.904 0.7739-3.821 3.2396 2.082 2.4657 5.89-0.7602 3.808-3.2259l0.013-0.0137zm-1.719-5.0957c-1.876-2.2123-5.315 0.6849-3.424 2.9108 1.89 2.226 5.301-0.6986 3.424-2.9108zm7.938 7.0477-0.137-0.1986c-0.216-0.2499-0.521-0.405-0.85-0.4319-0.33-0.0269-0.656 0.0766-0.91 0.288-0.25 0.2173-0.405 0.5232-0.433 0.853-0.028 0.3299 0.073 0.6577 0.282 0.9141l0.165 0.1849c0.216 0.2513 0.522 0.4079 0.853 0.4361 0.33 0.0281 0.658-0.0743 0.914-0.2854 0.241-0.2226 0.388-0.5293 0.41-0.8569 0.021-0.3275-0.084-0.6509-0.294-0.9033zm2.219-3.1917-0.164-0.1849c-0.215-0.2509-0.52-0.4072-0.849-0.4354s-0.657 0.074-0.911 0.2847c-0.248 0.2182-0.403 0.5239-0.431 0.8532-0.028 0.3294 0.072 0.6568 0.28 0.9139l0.165 0.1917c0.216 0.2499 0.521 0.405 0.85 0.4319s0.656-0.0765 0.91-0.288c0.25-0.2173 0.405-0.5232 0.433-0.853 0.028-0.3299-0.073-0.6577-0.283-0.9141zm-3.767-1.726-0.157-0.1917c-0.17-0.2006-0.378-0.3657-0.612-0.486-0.233-0.1202-0.489-0.1933-0.751-0.2149s-0.525 0.0086-0.776 0.0889c-0.25 0.0803-0.482 0.2091-0.683 0.3791-0.2 0.17-0.366 0.3778-0.486 0.6116s-0.193 0.489-0.215 0.7511c-0.021 0.262 9e-3 0.5257 0.089 0.7761s0.209 0.4824 0.379 0.683l0.158 0.1849c0.169 0.2023 0.376 0.3692 0.61 0.491 0.234 0.1219 0.489 0.1964 0.752 0.2191 0.262 0.0228 0.527-0.0066 0.778-0.0864s0.484-0.2085 0.686-0.3787c0.201-0.1701 0.367-0.3784 0.487-0.6128 0.121-0.2344 0.194-0.4904 0.215-0.7531s-0.01-0.5271-0.091-0.7778c-0.081-0.2508-0.211-0.483-0.383-0.6834zm6.63-0.6849c-0.171-0.2025-0.416-0.3286-0.681-0.3504s-0.527 0.0623-0.729 0.234c-0.203 0.1716-0.329 0.4167-0.351 0.6813s0.062 0.5271 0.234 0.7296c0.174 0.2025 0.42 0.3279 0.686 0.3484 0.266 0.0206 0.529-0.0653 0.732-0.2388 0.202-0.1735 0.328-0.4203 0.348-0.6862 0.021-0.2659-0.065-0.529-0.239-0.7316v0.0137zm-3.499-0.6438c-0.134-0.1329-0.314-0.2107-0.502-0.218-0.189-0.0072-0.373 0.0566-0.517 0.1789s-0.237 0.2941-0.26 0.4815c-0.023 0.1873 0.025 0.3765 0.135 0.5302 0.131 0.1517 0.316 0.2452 0.516 0.2599 0.2 0.0148 0.397-0.0504 0.549-0.1812 0.151-0.1307 0.245-0.3164 0.26-0.5162 0.014-0.1997-0.051-0.3971-0.181-0.5488v0.0137zm4.684-2.9862c-0.085-0.1003-0.189-0.1829-0.305-0.243-0.117-0.0601-0.245-0.0966-0.376-0.1074-0.265-0.0219-0.527 0.0623-0.73 0.234-0.202 0.1716-0.328 0.4167-0.35 0.6813s0.062 0.527 0.234 0.7296c0.086 0.1003 0.191 0.1827 0.308 0.2424 0.118 0.0598 0.246 0.0958 0.378 0.106s0.264-0.0057 0.39-0.0467c0.125-0.0409 0.241-0.1062 0.342-0.1921 0.1-0.0859 0.182-0.1907 0.242-0.3085 0.06-0.1177 0.096-0.2461 0.106-0.3777 0.01-0.1317-6e-3 -0.264-0.047-0.3896-0.04-0.1255-0.106-0.2417-0.192-0.342v0.0137zm-0.924-1.863c-0.089-0.0881-0.208-0.1397-0.333-0.1447-0.125-0.0049-0.247 0.0372-0.343 0.1181-0.095 0.0808-0.157 0.1945-0.173 0.3187-0.015 0.1241 0.016 0.2496 0.088 0.3518 0.089 0.0881 0.208 0.1398 0.333 0.1447s0.247-0.0372 0.343-0.1181c0.095-0.0808 0.157-0.1945 0.173-0.3187 0.015-0.1241-0.016-0.2496-0.088-0.3518zm1.541-3.6026-0.158-0.1918c-0.22-0.2325-0.521-0.372-0.841-0.3897-0.319-0.0177-0.634 0.0877-0.878 0.2945-0.245 0.2068-0.401 0.4995-0.437 0.8178-0.035 0.3183 0.052 0.6381 0.245 0.8938l0.158 0.1918c0.102 0.1361 0.232 0.2499 0.38 0.3343s0.312 0.1377 0.481 0.1567c0.17 0.0189 0.341 0.0031 0.504-0.0466 0.164-0.0496 0.315-0.132 0.445-0.2421s0.237-0.2457 0.313-0.3983 0.12-0.3191 0.129-0.4894c9e-3 -0.1702-0.016-0.3406-0.075-0.5007-0.058-0.16-0.149-0.3065-0.266-0.4303zm-2.911-1.4794c-0.089-0.0881-0.208-0.1398-0.333-0.1447-0.125-5e-3 -0.247 0.0372-0.342 0.118-0.096 0.0809-0.158 0.1946-0.173 0.3187-0.016 0.1242 0.015 0.2497 0.088 0.3518 0.088 0.0882 0.207 0.1398 0.332 0.1448 0.125 0.0049 0.247-0.0372 0.343-0.1181 0.095-0.0809 0.157-0.1946 0.173-0.3187 0.016-0.1242-0.016-0.2497-0.088-0.3518zm-1.836-1.3698c-0.085-0.1003-0.189-0.1829-0.306-0.243-0.116-0.0601-0.244-0.0966-0.375-0.1074-0.131-0.0109-0.263 0.0042-0.388 0.0444-0.125 0.0401-0.241 0.1046-0.342 0.1896-0.1 0.0849-0.182 0.1889-0.243 0.3058-0.06 0.1169-0.096 0.2445-0.107 0.3755s4e-3 0.2629 0.044 0.3881c0.041 0.1251 0.105 0.2412 0.19 0.3415 0.175 0.2061 0.425 0.3342 0.695 0.3561 0.27 0.0218 0.537-0.0644 0.743-0.2397s0.335-0.4253 0.356-0.695c0.022-0.2698-0.064-0.5371-0.239-0.7433l-0.028 0.0274zm-1.068 2.2191c-0.086-0.1017-0.208-0.1654-0.34-0.1769-0.132-0.0116-0.264 0.0299-0.366 0.1153-0.101 0.0853-0.165 0.2076-0.177 0.3399-0.011 0.1323 0.03 0.2638 0.116 0.3655 0.044 0.0522 0.098 0.0952 0.158 0.1265 0.061 0.0313 0.127 0.0504 0.195 0.0561s0.137-2e-3 0.202-0.0228c0.065-0.0207 0.125-0.0541 0.178-0.0981 0.052-0.0441 0.095-0.098 0.126-0.1587s0.05-0.127 0.056-0.195c6e-3 -0.0681-2e-3 -0.1366-0.023-0.2016-0.02-0.0651-0.054-0.1254-0.098-0.1776l-0.027 0.0274zm2.349 1.6164c-0.181-0.1457-0.407-0.2239-0.639-0.2212s-0.456 0.0861-0.634 0.236c-0.177 0.1498-0.297 0.3568-0.338 0.5853-0.042 0.2285-2e-3 0.4643 0.111 0.667 0.172 0.2025 0.417 0.3286 0.681 0.3504 0.265 0.0218 0.528-0.0623 0.73-0.234 0.203-0.1717 0.329-0.4167 0.35-0.6813 0.022-0.2646-0.062-0.5271-0.234-0.7296l-0.027 0.0274zm-0.205 2.4657c-0.091-0.1009-0.218-0.1615-0.354-0.1685-0.135-0.0071-0.268 0.04-0.369 0.1308s-0.161 0.218-0.168 0.3535c-8e-3 0.1355 0.04 0.2683 0.13 0.3691 0.439 0.4315 1.206-0.2192 0.788-0.7123l-0.027 0.0274zm-0.041 2.6643c-0.085-0.1003-0.189-0.1829-0.306-0.243s-0.245-0.0967-0.376-0.1075c-0.264-0.0218-0.527 0.0624-0.729 0.234-0.203 0.1717-0.329 0.4168-0.351 0.6814s0.063 0.527 0.234 0.7295c0.175 0.2062 0.425 0.3343 0.695 0.3561 0.27 0.0219 0.537-0.0643 0.743-0.2396 0.207-0.1753 0.335-0.4253 0.357-0.6951 0.021-0.2697-0.065-0.5371-0.24-0.7432l-0.027 0.0274zm-3.233 0.4383c-0.134-0.1329-0.313-0.2107-0.502-0.218-0.189-0.0072-0.373 0.0566-0.517 0.1789s-0.236 0.2941-0.26 0.4815c-0.023 0.1873 0.025 0.3765 0.135 0.5302 0.133 0.1553 0.321 0.2516 0.525 0.2676 0.204 0.0161 0.405-0.0494 0.561-0.182 0.155-0.1326 0.251-0.3215 0.267-0.5251s-0.049-0.4052-0.182-0.5605l-0.027 0.0274zm1.068-2.2191c-0.135-0.1148-0.306-0.1784-0.483-0.1797s-0.349 0.0598-0.485 0.1726c-0.137 0.1128-0.229 0.2701-0.261 0.4442s-2e-3 0.354 0.085 0.5081c0.064 0.0769 0.143 0.1404 0.231 0.1871 0.089 0.0466 0.185 0.0753 0.285 0.0845 0.099 0.0092 0.2-0.0012 0.295-0.0308 0.096-0.0296 0.184-0.0777 0.261-0.1415 0.077-0.0639 0.141-0.1423 0.187-0.2307 0.047-0.0884 0.076-0.1852 0.085-0.2847s-1e-3 -0.1999-0.031-0.2954c-0.029-0.0955-0.078-0.1842-0.141-0.2611l-0.028 0.0274zm-0.144-2.1643c-0.085-0.1017-0.207-0.1654-0.34-0.1769-0.132-0.0116-0.263 0.0299-0.365 0.1152-0.102 0.0854-0.165 0.2077-0.177 0.34s0.03 0.2638 0.115 0.3655c0.043 0.0504 0.094 0.0919 0.153 0.1223 0.058 0.0303 0.122 0.0489 0.187 0.0546 0.066 0.0057 0.132-0.0015 0.194-0.0213 0.063-0.0198 0.121-0.0517 0.172-0.094 0.05-0.0422 0.092-0.094 0.122-0.1523 0.03-0.0584 0.049-0.1221 0.055-0.1876 5e-3 -0.0655-2e-3 -0.1315-0.022-0.1942-0.019-0.0627-0.051-0.121-0.094-0.1713zm-4.294 4.6163-0.116 0.1027c-0.494 0.411 0.157 1.1781 0.684 0.7603l0.117-0.0959c0.103-0.0908 0.165-0.2187 0.173-0.3555 9e-3 -0.1368-0.038-0.2713-0.129-0.374-0.09-0.1026-0.218-0.1649-0.355-0.1733-0.137-0.0083-0.271 0.038-0.374 0.1288v0.0069zm-1.671-1.1918c-0.13-0.149-0.314-0.2409-0.511-0.2559-0.197-0.0149-0.392 0.0482-0.543 0.1759-0.151 0.1276-0.246 0.3096-0.264 0.5065s0.042 0.3931 0.167 0.5461c0.13 0.149 0.314 0.2409 0.511 0.2559s0.392-0.0482 0.543-0.1758c0.151-0.1277 0.246-0.3096 0.264-0.5066 0.018-0.1969-0.042-0.393-0.167-0.5461zm0.096-3.3629c-0.106-0.125-0.236-0.2279-0.382-0.3028s-0.305-0.1203-0.469-0.1336c-0.163-0.0134-0.328 0.0056-0.484 0.0558s-0.301 0.1307-0.426 0.2368-0.227 0.2358-0.302 0.3817-0.121 0.3052-0.134 0.4686c-0.013 0.1635 6e-3 0.3279 0.056 0.4841 0.05 0.1561 0.13 0.3008 0.237 0.4258 0.217 0.2525 0.525 0.4084 0.857 0.4335 0.332 0.025 0.661-0.0829 0.913-0.2999 0.253-0.2171 0.409-0.5256 0.434-0.8576 0.025-0.3321-0.083-0.6604-0.3-0.9129v0.0205zm3.5 0.9726c-0.216-0.2534-0.523-0.4109-0.854-0.4379-0.332-0.027-0.66 0.0788-0.913 0.2941-0.254 0.2152-0.411 0.5223-0.438 0.8537s0.078 0.6599 0.294 0.9133c0.106 0.1255 0.237 0.2288 0.383 0.3039s0.306 0.1207 0.47 0.134c0.165 0.0134 0.33-0.0057 0.486-0.0562 0.157-0.0504 0.302-0.1313 0.428-0.2378 0.125-0.1066 0.228-0.2369 0.304-0.3834 0.075-0.1464 0.12-0.3063 0.134-0.4704 0.013-0.1641-6e-3 -0.3292-0.057-0.4859-0.05-0.1567-0.131-0.3019-0.237-0.4274zm0.746-2.5958c-0.063-0.0751-0.141-0.137-0.228-0.1821-0.088-0.0451-0.183-0.0726-0.281-0.0809s-0.196 0.0029-0.29 0.0327-0.181 0.0778-0.256 0.1412c-0.075 0.0635-0.137 0.141-0.182 0.2284-0.045 0.0873-0.072 0.1826-0.081 0.2806-8e-3 0.0979 3e-3 0.1965 0.033 0.2902 0.03 0.0936 0.078 0.1805 0.141 0.2556 0.136 0.1159 0.309 0.1794 0.487 0.1788 0.179-6e-4 0.351-0.0651 0.487-0.1819 0.135-0.1168 0.223-0.2782 0.25-0.4548 0.026-0.1766-0.012-0.3568-0.107-0.5078h0.027zm-2.849 0.1164c-0.134-0.1329-0.313-0.2107-0.502-0.2179-0.188-0.0073-0.373 0.0566-0.517 0.1788-0.144 0.1223-0.236 0.2941-0.259 0.4815-0.024 0.1873 0.024 0.3765 0.134 0.5302 0.138 0.1087 0.309 0.1658 0.485 0.1615 0.175-0.0044 0.344-0.0698 0.476-0.1852 0.133-0.1153 0.221-0.2732 0.249-0.4464 0.028-0.1733-5e-3 -0.351-0.093-0.5025h0.027zm-1.322-1.5273c-0.085-0.1018-0.208-0.1654-0.34-0.177-0.132-0.0115-0.264 0.03-0.365 0.1153-0.102 0.0854-0.166 0.2077-0.177 0.34-0.012 0.1323 0.03 0.2638 0.115 0.3655 0.042 0.0504 0.094 0.0919 0.152 0.1223 0.059 0.0303 0.122 0.0489 0.188 0.0546 0.065 0.0057 0.131-0.0015 0.194-0.0213s0.121-0.0517 0.171-0.094c0.051-0.0422 0.092-0.094 0.123-0.1524 0.03-0.0583 0.049-0.122 0.054-0.1875 6e-3 -0.0655-1e-3 -0.1315-0.021-0.1942-0.02-0.0628-0.052-0.121-0.094-0.1713zm2.877-0.4726-0.158-0.1918c-0.06-0.0849-0.138-0.1563-0.228-0.2097-0.089-0.0533-0.189-0.0875-0.293-0.1003-0.103-0.0128-0.208-4e-3 -0.308 0.0259s-0.193 0.0803-0.272 0.1478c-0.08 0.0676-0.144 0.1509-0.19 0.2448-0.045 0.0938-0.071 0.1961-0.075 0.3003-4e-3 0.1043 0.014 0.2082 0.052 0.3052 0.038 0.0971 0.096 0.1851 0.17 0.2586l0.158 0.1918c0.056 0.0936 0.131 0.174 0.221 0.2357 0.089 0.0617 0.192 0.1032 0.299 0.1216s0.217 0.0133 0.323-0.0149c0.105-0.0282 0.203-0.0789 0.286-0.1486 0.084-0.0697 0.152-0.1567 0.198-0.255 0.047-0.0984 0.072-0.2057 0.074-0.3146 1e-3 -0.1089-0.021-0.2169-0.066-0.3164-0.044-0.0994-0.109-0.1881-0.191-0.2599v-0.0205zm-9.377-6.8286c-0.134-0.13294-0.313-0.21072-0.501-0.21796-0.189-0.00724-0.374 0.0566-0.517 0.17889-0.144 0.12228-0.237 0.29405-0.26 0.48145-0.023 0.1873 0.025 0.3765 0.134 0.5302 0.134 0.1329 0.313 0.2107 0.502 0.218 0.189 0.0072 0.373-0.0566 0.517-0.1789s0.237-0.2941 0.26-0.4815c0.023-0.1873-0.025-0.37653-0.135-0.53018zm-6.438 0.53428c-0.089-0.0882-0.207-0.1398-0.332-0.1448-0.125-0.0049-0.248 0.0372-0.343 0.1181-0.096 0.0808-0.157 0.1946-0.173 0.3187s0.016 0.2497 0.088 0.3518c0.089 0.0784 0.204 0.1224 0.323 0.1241 0.118 0.0017 0.234-0.0391 0.326-0.115 0.091-0.0759 0.153-0.1819 0.173-0.2991 0.021-0.1172-1e-3 -0.2378-0.062-0.3401v-0.0137z" fill="#FFD797" opacity=".4"/>
<path d="m128.79 6.5542c-10.753 0.19177-39.786 0.29451-66.073 1.4246-8.6367 0.3904-16.958 0.90408-24.218 1.5479-14.924 1.3151-25.458 3.1849-25.41 6.0478 0.2123 7.1847-0.137 11.787 0.4931 15.212 0.6301 3.4245 2.1986 5.6642 6.0546 8.1093 3.2671 2.0547 29.081 2.6369 56.06 2.6438 9.9517 0 20.061-0.0685 29.259-0.1781 15.753-0.185 28.855-0.4658 33.896-0.6164 22.945-0.685 61.327 0.1575 71.121-3.4246 3.925-1.4041 6.349-4.5273 7.596-8.2669 0.949-2.9675 1.282-6.0975 0.979-9.1983-0.684-7.1847-4.246-13.643-8.862-13.315-10.349-3.8903-56.67-0.4041-80.895 0.0137z" fill="#FFE90C" opacity=".05"/>
<path d="m129.75 7.0441c-10.37 0.19863-38.081 0.32876-63.108 1.4657-8.219 0.39725-16.143 0.94518-23.006 1.5821-14.15 1.3356-24.122 3.1164-24.013 5.856 0.2739 6.8491-0.0754 11.212 0.5479 14.472 0.6233 3.2601 2.089 5.3902 5.8012 7.7189 3.178 1.9862 27.787 2.5273 53.505 2.5342 9.4928 0 19.178-0.0685 27.924-0.1781 15.02-0.1849 27.513-0.4589 32.349-0.6096 21.917-0.6849 58.491 0 67.806-3.4245 3.726-1.3699 6.034-4.3287 7.198-7.9039 0.911-2.8151 1.226-5.7891 0.925-8.7326-0.685-6.8491-4.192-13.054-8.692-12.76-9.931-3.7122-54.101-0.4041-77.237-0.02055z" fill="#FFE90C" opacity=".1"/>
<path d="m130.7 7.5852c-9.986 0.19862-36.376 0.30821-60.135 1.5-7.8353 0.39725-15.328 0.99314-21.801 1.63-13.363 1.3151-22.76 2.9863-22.602 5.6095 0.3356 6.4792 0 10.644 0.6027 13.739s2.0068 5.1368 5.5546 7.3285c3.0821 1.9041 26.492 2.4109 50.944 2.4177 9.0408 0 18.225-0.0684 26.588-0.1712 14.287-0.1781 26.171-0.4452 30.821-0.6027 20.938-0.6849 55.67-0.089 64.484-3.3835 3.521-1.315 5.713-4.1094 6.802-7.534 0.868-2.6684 1.167-5.4894 0.876-8.2805-0.719-6.5752-4.143-12.465-8.534-12.205-9.575-3.5684-51.539-0.44519-73.6-0.04794z" fill="#FFE90C" opacity=".14"/>
<path d="m131.66 8.0933c-9.588 0.20547-34.677 0.32191-57.169 1.541-7.4313 0.39721-14.506 1.0274-20.547 1.6643-12.596 1.3219-21.404 2.8903-21.232 5.3971 0.3973 6.1231 0.048 10.068 0.685 13.013 0.6369 2.9451 1.9383 4.8766 5.308 6.9382 2.9931 1.8218 25.198 2.3013 48.389 2.3081 8.582 0 17.301-0.0685 25.246-0.1712 13.554-0.1713 24.828-0.4384 29.253-0.5959 19.937-0.6849 52.84-0.1986 61.162-3.3766 3.322-1.2671 5.39-3.9314 6.397-7.1642 0.832-2.5181 1.117-5.1847 0.836-7.8216-0.754-6.2738-4.11-11.876-8.377-11.644-9.198-3.4246-48.998-0.45204-69.95-0.08904z" fill="#FFE90C" opacity=".19"/>
<path d="m132.62 8.6092c-9.205 0.20548-32.965 0.34246-54.19 1.5753-7.034 0.411-13.698 1.0753-19.376 1.7123-11.815 1.315-20.04 2.7807-19.862 5.1711 0.4589 5.7738 0.1164 9.4997 0.6849 12.267s1.8561 4.6094 5.0615 6.5409c2.8972 1.7465 23.903 2.1917 45.827 2.1986 8.1299 0 16.383-0.0685 23.91-0.1713 12.815-0.1643 23.486-0.4178 27.705-0.5753 18.931-0.6849 49.998-0.3219 57.841-3.3766 1.461-0.5862 2.766-1.5068 3.808-2.6878 1.041-1.1811 1.792-2.5899 2.192-4.1134 0.79-2.3663 1.056-4.8763 0.78-7.3559-0.774-5.9656-4.041-11.287-8.219-11.109-8.684-3.2191-46.293-0.45204-66.162-0.07534z" fill="#FFE90C" opacity=".24"/>
<path d="m133.59 9.104c-8.822 0.19178-31.26 0.35616-51.225 1.6096-6.6368 0.4452-12.883 1.1301-18.178 1.7739-11.041 1.3219-18.684 2.6848-18.492 4.9519 0.5205 5.4176 0.1712 8.9038 0.7602 11.534 0.589 2.63 1.7808 4.3423 4.7944 6.1642 2.8013 1.6643 22.602 2.0547 43.259 2.0547 7.6775 0 15.472-0.0685 22.602-0.1712 12.075-0.1576 22.143-0.411 26.149-0.5685 17.931-0.6849 47.191-0.4315 54.526-3.3698 1.38-0.5516 2.61-1.4189 3.594-2.5322s1.693-2.4417 2.07-3.8785c0.732-2.221 0.966-4.5756 0.685-6.8971-0.801-5.6642-3.993-10.698-8.047-10.554-8.308-3.0478-43.739-0.49999-62.498-0.11644z" fill="#FFE90C" opacity=".29"/>
<path d="m134.53 9.6352c-8.439 0.19178-29.554 0.37666-48.252 1.6507-6.2259 0.4246-12.054 1.1643-16.952 1.7944-10.274 1.3219-17.328 2.5753-17.082 4.7328 0.5753 5.0615 0.2328 8.349 0.815 10.801s1.7054 4.0752 4.5683 5.7533c2.7397 1.5889 21.314 1.9725 40.704 1.9725 7.2259 0 14.554-0.0616 21.232-0.1644 11.342-0.1575 20.801-0.4041 24.602-0.5616 16.924-0.6849 44.362-0.5411 51.204-3.3629 1.28-0.535 2.417-1.3617 3.321-2.4141s1.549-2.3014 1.885-3.6474c0.705-2.0682 0.939-4.2679 0.684-6.4381-0.828-5.3629-3.945-10.116-7.883-10.007-7.917-2.8698-41.163-0.50684-58.847-0.10959z" fill="#FFE90C" opacity=".33"/>
<path d="m135.49 10.151c-8.047 0.1918-27.848 0.3904-45.286 1.6849-5.8217 0.4315-11.232 1.2123-15.753 1.8424-9.4929 1.3219-15.965 2.4725-15.698 4.5067 0.6302 4.7053 0.3014 7.7806 0.8767 10.068s1.6233 3.8081 4.3218 5.3628c2.6986 1.5548 20.034 1.8561 38.128 1.8561 6.767 0 13.637-0.0616 19.911-0.1575 10.602-0.1507 19.458-0.3972 23.054-0.5548 15.924-0.6849 41.533-0.6849 47.882-3.356 1.186-0.5136 2.236-1.2957 3.068-2.2846s1.423-2.1576 1.726-3.4139c0.535-1.9725 0.987-3.6985 0.63-5.9792-0.849-5.0547-3.89-9.5203-7.718-9.4518-7.493-2.6986-38.554-0.48629-55.143-0.1233z" fill="#FFE90C" opacity=".38"/>
<path d="m136.45 10.666c-7.665 0.1918-26.143 0.411-42.314 1.726-5.4245 0.4383-10.418 1.2534-14.527 1.8766-8.7189 1.3288-14.616 2.3698-14.315 4.2876 0.6849 4.3492 0.3561 7.2121 0.9246 9.3353s1.5548 3.541 4.1095 4.9656 18.725 1.7534 35.616 1.7534c6.308 0 12.718-0.0617 18.568-0.1575 9.869-0.1507 18.122-0.3904 21.506-0.548 14.924-0.6849 38.711-0.7602 44.567-3.3492 1.098-0.4838 2.068-1.2175 2.833-2.1427 0.765-0.9251 1.302-2.0161 1.571-3.1859 0.479-1.8424 0.952-3.3629 0.589-5.5204-0.877-4.7532-3.849-8.9038-7.534-8.9038-7.199-2.5205-36.095-0.5205-51.594-0.137z" fill="#FFE90C" opacity=".43"/>
<path d="m137.41 11.156c-7.281 0.1918-24.444 0.4247-39.348 1.7534-5.0204 0.4452-9.5888 1.2945-13.315 1.9246-7.9381 1.3356-13.253 2.2533-12.924 4.0684 0.726 3.9861 0.4178 6.6367 0.9795 8.5956 0.5616 1.9588 1.4725 3.2738 3.8286 4.5752 2.3561 1.3013 17.431 1.6849 33.026 1.6849 5.856 0 11.801-0.0617 17.233-0.1507 9.13-0.1439 16.773-0.3767 19.958-0.5411 13.917-0.6849 35.876-0.8767 41.245-3.3424 1.008-0.458 1.895-1.1447 2.59-2.0056 0.696-0.8608 1.181-1.8719 1.417-2.9531 0.418-1.7191 0.911-3.0273 0.541-5.0615-0.911-4.4519-3.801-8.3422-7.397-8.3491-6.739-2.3698-33.43-0.5547-47.834-0.1986z" fill="#FFE90C" opacity=".48"/>
<path d="m138.38 11.699c-6.897 0.1918-22.739 0.4452-36.376 1.7876-4.6228 0.4589-8.7734 1.3698-12.109 1.9657-7.1573 1.3698-11.897 2.1506-11.534 3.8492 0.7603 3.63 0.4795 6.0683 1.0274 7.8628 0.2559 0.9164 0.7092 1.7659 1.3279 2.4887 0.6188 0.7229 1.3881 1.3018 2.2542 1.6961 2.3424 1.267 16.136 1.5273 30.471 1.5273 5.397 0 10.884-0.0616 15.897-0.1507 8.39-0.1438 15.431-0.3698 18.41-0.5342 12.911-0.6849 33.047-0.9794 37.924-3.3355 0.916-0.4342 1.719-1.0754 2.346-1.8729 0.626-0.7975 1.059-1.7296 1.263-2.7229 0.357-1.5821 0.87-2.6848 0.487-4.5957-0.932-4.1506-3.747-7.76-7.233-7.8011-6.349-2.1712-30.855-0.5411-44.156-0.1644z" fill="#FFE90C" opacity=".52"/>
<path d="m139.33 12.209c-6.506 0.1917-21.033 0.4657-33.41 1.8287-3.662 0.4774-7.2975 1.1473-10.89 2.0068-6.3765 1.3698-10.548 2.0547-10.157 3.63 0.8013 3.2602 0.541 5.4793 1.089 7.1231 0.2524 0.8341 0.6807 1.6044 1.2561 2.259 0.5754 0.6545 1.2845 1.1781 2.0794 1.5354 2.2533 1.1849 14.842 1.4109 27.91 1.4109 4.945 0 9.965-0.0548 14.561-0.1507 7.657-0.1301 14.088-0.3562 16.855-0.5137 11.911-0.6849 30.219-1.0958 34.609-3.3355 0.825-0.4095 1.544-1.0039 2.101-1.737 0.557-0.733 0.937-1.5847 1.111-2.4889 0.295-1.4589 0.829-2.3492 0.439-4.1095-0.959-3.8492-3.699-7.171-7.069-7.2532-5.945-2.0273-28.266-0.5753-40.485-0.2054z" fill="#FFE90C" opacity=".57"/>
<path d="m140.29 12.726c-6.123 0.1918-19.335 0.4863-30.437 1.8629-3.268 0.4826-6.503 1.1688-9.685 2.0548-5.5889 1.3698-9.1915 1.9177-8.7669 3.4245 0.8219 2.8972 0.6028 4.9177 1.1439 6.3971 0.2431 0.7569 0.6442 1.4536 1.1767 2.044 0.5325 0.5903 1.1843 1.0609 1.9122 1.3805 2.1575 1.1096 13.541 1.3082 25.342 1.3082 4.493 0 9.047-0.0616 13.232-0.1507 6.918-0.1301 12.746-0.3424 15.308-0.5068 10.91-0.6849 27.396-1.2054 31.286-3.3287 0.735-0.3816 1.371-0.9285 1.858-1.5976s0.813-1.4422 0.951-2.2584c0.239-1.3356 0.794-2.0136 0.397-3.6848-0.986-3.541-3.651-6.5752-6.911-6.6984-5.541-1.8767-25.698-0.6028-36.807-0.2466z" fill="#FFE90C" opacity=".62"/>
<path d="m141.25 13.213c-5.74 0.1986-17.63 0.5068-27.472 1.904-2.872 0.4854-5.704 1.1837-8.472 2.089-4.795 1.3698-8.0821 1.9109-7.3767 3.1848 0.1776 1.9277 0.5775 3.8284 1.1918 5.6642 0.247 0.6659 0.6262 1.2749 1.1149 1.7904 0.488 0.5155 1.076 0.927 1.727 1.2095 2.055 1.0274 12.254 1.1986 22.787 1.1918 4.041 0 8.13-0.0548 11.89-0.1438 6.165-0.1233 11.411-0.3357 13.76-0.5 9.911-0.6849 24.548-1.3082 27.972-3.3218 0.641-0.3568 1.192-0.856 1.61-1.4592 0.418-0.6033 0.692-1.2944 0.801-2.0202 0.178-1.2054 0.753-1.6712 0.342-3.2191-1.006-3.2396-3.595-5.9861-6.739-6.1642-5.178-1.6164-23.102-0.5273-33.136-0.2054z" fill="#FFE90C" opacity=".67"/>
<path d="m142.2 13.75c-5.356 0.1987-15.931 0.5411-24.5 1.9383-2.481 0.4829-4.912 1.1984-7.26 2.137-3.993 1.3698-6.746 1.8081-5.999 2.9656 0.21 1.6873 0.632 3.3417 1.253 4.9245 0.239 0.5845 0.592 1.116 1.037 1.5638 0.446 0.4478 0.976 0.8032 1.559 1.0457 1.979 0.9384 10.958 1.0822 20.225 1.0753 3.582 0 7.212-0.0479 10.555-0.1369 5.479-0.1233 10.061-0.3219 12.212-0.4932 8.903-0.6849 21.711-1.4109 24.656-3.3149 0.553-0.3316 1.022-0.7856 1.371-1.3272 0.349-0.5415 0.569-1.156 0.643-1.796 0.116-1.0753 0.685-1.3356 0.295-2.7397-1.035-2.9314-3.548-5.3971-6.582-5.5957-4.754-1.4726-20.52-0.5822-29.465-0.2466z" fill="#FFE90C" opacity=".71"/>
<path d="m143.18 14.268c-4.973 0.1986-14.233 0.5685-21.534 1.9726-2.096 0.4802-4.127 1.2115-6.048 2.178-3.178 1.3698-5.404 1.7122-4.609 2.7396 0.24 1.4503 0.677 2.8607 1.301 4.1917 0.477 1.0098 1.308 1.8093 2.336 2.2465 1.897 0.8561 9.664 0.9725 17.671 0.9657 3.13 0 6.294-0.0617 9.218-0.137 4.706-0.1301 8.719-0.3151 10.665-0.4863 7.897-0.6849 18.862-1.5068 21.328-3.3149 0.459-0.304 0.844-0.7087 1.124-1.1834s0.448-1.0069 0.492-1.5563c0.055-0.952 0.685-1 0.24-2.3013-1.055-2.63-3.493-4.7944-6.418-5.0478-4.342-1.3219-17.924-0.589-25.766-0.2671z" fill="#FFE90C" opacity=".76"/>
<path d="m144.12 14.781c-4.582 0.2055-12.534 0.6096-18.561 2.0137-1.772 0.3243-3.434 1.0872-4.836 2.2191-2.595 0.7945-4.068 1.6095-3.226 2.5204 0.273 1.2177 0.735 2.3849 1.37 3.4588 0.474 0.8286 1.215 1.4712 2.103 1.8219 1.808 0.7739 8.369 0.863 15.109 0.8561 2.671 0 5.377-0.0548 7.883-0.1301 3.973-0.1233 7.377-0.3014 9.11-0.4794 6.904-0.685 16.027-1.589 18.013-3.3082 0.368-0.2807 0.669-0.6406 0.88-1.0531s0.327-0.8671 0.339-1.3303c0-0.8288 0.63-0.685 0.192-1.8356-0.572-1.2212-1.447-2.2758-2.542-3.0634-1.094-0.7876-2.372-1.2821-3.712-1.4365-3.965-1.1369-15.362-0.5616-22.122-0.2534z" fill="#FFE90C" opacity=".81"/>
<path d="m145.08 15.268c-4.199 0.2124-10.842 0.6849-15.595 2.0548-1.822 0.5342-3.103 1.3698-3.624 2.2602-1.821 0.7671-2.739 1.5136-1.835 2.3081 0.308 0.9878 0.786 1.9147 1.411 2.7397 0.461 0.6495 1.105 1.1477 1.849 1.4314 1.733 0.6849 7.075 0.7534 12.554 0.7466 2.22 0 4.459-0.0548 6.541-0.137 3.24-0.1164 6.041-0.2877 7.534-0.4589 5.897-0.6849 13.178-1.6643 14.692-3.3081 0.275-0.2551 0.491-0.5679 0.632-0.9159s0.203-0.7228 0.183-1.0978c-0.069-0.6849 0.596-0.3219 0.15-1.3698-0.638-1.0871-1.522-2.01-2.58-2.6949-1.058-0.685-2.262-1.1131-3.515-1.2502-3.514-0.9588-12.726-0.5684-18.397-0.3082z" fill="#FFE90C" opacity=".86"/>
<path d="m146.04 15.809c-3.815 0.2192-9.144 0.726-12.623 2.089-1.432 0.5548-2.288 1.4041-2.418 2.3013-1.055 0.7329-1.37 1.4178-0.452 2.0548 0.368 0.7454 0.864 1.4201 1.466 1.993 0.447 0.4666 0.999 0.8209 1.609 1.0343 1.651 0.5753 5.781 0.6369 9.986 0.6301 1.767 0 3.548-0.0548 5.212-0.1302 2.5-0.1095 4.699-0.2739 6.021-0.452 4.89-0.6849 10.342-1.7054 11.369-3.3013 0.181-0.2295 0.312-0.4944 0.384-0.7776 0.072-0.2831 0.083-0.5782 0.034-0.8662-0.137-0.589 0.555 0 0.096-0.9246-0.698-0.9451-1.586-1.7345-2.606-2.3182-1.02-0.5836-2.15-0.9487-3.318-1.0721-3.158-0.7465-10.185-0.5274-14.76-0.2603z" fill="#FFE90C" opacity=".9"/>
<path d="m147 16.316c-3.425 0.2329-7.431 0.8356-9.657 2.1233-1.028 0.5958-1.473 1.4314-1.199 2.3492-0.288 0.6849-0.048 1.315 0.931 1.863 0.437 0.4966 0.95 0.9198 1.521 1.2534 0.422 0.2808 0.884 0.4978 1.37 0.6438 1.568 0.452 4.479 0.5274 7.424 0.5205 1.308 0 2.63-0.0548 3.877-0.1301 1.76-0.1028 3.356-0.2603 4.465-0.4452 3.898-0.6849 7.576-1.7191 8.062-3.2944 0.159-0.4122 0.159-0.8687 0-1.2808-0.212-0.4726 0.514 0.3561 0.048-0.4589-1.165-1.4178-3.295-2.4588-5.767-2.8424-2.747-0.6027-7.589-0.5411-11.075-0.3014z" fill="#FFE90C" opacity=".95"/>
<path d="m160.98 19.445c-1.192-1.1164-3.253-1.8698-5.609-2.2945-2.445-0.4199-4.933-0.5258-7.404-0.315-4.795 0.4041-8.514 2.0068-6.678 4.5478 0.856 1.1917 2.74 1.9794 5.007 2.4109 2.445 0.4308 4.938 0.5276 7.41 0.2876 4.918-0.452 8.986-2.13 7.274-4.6368-0.349-0.3151 0.459 0.6918 0 0z" fill="#FFE90C"/>
<path d="m218.18 28.524c0.329-1.4109 1.336-2.3835 2.24-2.1712s1.37 1.5342 1.027 2.9451c-0.342 1.4109-1.328 2.4041-2.246 2.1712s-1.37-1.5274-1.021-2.9451z" fill="#fff" opacity=".6"/>
<path d="m213.28 33.805c1.637-1.7603 3.87-2.3493 5-1.3014s0.685 3.315-0.911 5.0821c-1.595 1.767-3.869 2.3355-5.02 1.3081-1.151-1.0273-0.685-3.3218 0.931-5.0888z" fill="#fff" opacity=".6"/>
<path d="m203.26 14.72c-19.178 0-30.033-0.2466-49.238-0.2466-12.486 0-116.76 0.6849-129.24 0.6849-11.164 0.0274-15.157 29.835-18.458 23.123-2.6917-5.4725-2.8629-26.89 1.6369-31.383 4.041-4.041 14.308-2.2396 19.321-2.2396h158.59c6.123 0 27.266-2.3561 31.437 3.5136 4.487 6.3354-3.78 6.5478-14.047 6.5478z" fill="url(#a)" opacity=".67"/>
<path d="m30.383 29.186c0 0.9143 0.723 1.6373 1.6373 1.6373 0.9144 0 1.6373-0.723 1.6373-1.6373v-10.355h3.147c0.8293 0 1.5097-0.6805 1.5097-1.5097 0-0.8293-0.6804-1.5097-1.5097-1.5097h-9.5686c-0.8292 0-1.5097 0.6804-1.5097 1.5097 0 0.8292 0.6805 1.5097 1.5097 1.5097h3.147v10.355zm10.322 0c0 0.9143 0.723 1.6373 1.6373 1.6373 0.9144 0 1.6373-0.723 1.6373-1.6373v-4.4653h6.0389v4.4653c0 0.9143 0.7229 1.6373 1.6373 1.6373 0.9143 0 1.6372-0.723 1.6372-1.6373v-11.865c0-0.9144-0.7229-1.6373-1.6372-1.6373-0.9144 0-1.6373 0.7229-1.6373 1.6373v4.3802h-6.0389v-4.3802c0-0.9144-0.7229-1.6373-1.6373-1.6373-0.9143 0-1.6373 0.7229-1.6373 1.6373v11.865zm15.135 0.1063c0 0.8506 0.6592 1.531 1.5097 1.531 0.6804 0 1.2333-0.3615 1.5097-1.0207l1.0419-2.4453h6.5492l0.9994 2.339c0.3189 0.6805 0.808 1.127 1.5735 1.127 0.8718 0 1.5522-0.7017 1.5522-1.5735 0-0.1914-0.0638-0.404-0.1701-0.6592l-5.1883-11.716c-0.3615-0.8292-0.9781-1.297-1.8925-1.297h-0.1913c-0.9144 0-1.5523 0.4678-1.9137 1.297l-5.1883 11.716c-0.1064 0.2339-0.1914 0.4678-0.1914 0.7017zm5.2733-4.8268 2.0626-4.9119 2.0626 4.9119h-4.1252zm12.027 4.763c0 0.9144 0.6804 1.5948 1.5948 1.5948 0.9143 0 1.616-0.6804 1.616-1.5948v-7.3997l2.828 4.359c0.3403 0.5104 0.7655 0.8293 1.3609 0.8293s1.0207-0.3189 1.3609-0.8293l2.8705-4.4228v7.421c0 0.9143 0.7017 1.6373 1.6161 1.6373 0.9143 0 1.6373-0.723 1.6373-1.6373v-11.822c0-0.9143-0.723-1.6373-1.6373-1.6373h-0.3615c-0.6379 0-1.127 0.2764-1.4672 0.8293l-3.9763 6.4641-3.955-6.4429c-0.3189-0.489-0.7867-0.8505-1.4884-0.8505h-0.3615c-0.9143 0-1.6373 0.723-1.6373 1.6373v11.865zm32.001 1.7224c2.233 0 3.998-0.7442 5.21-1.4885 0.765-0.4465 1.148-1.1482 1.148-2.0838v-3.6148c0-0.9143-0.723-1.6373-1.637-1.6373h-3.743c-0.787 0-1.424 0.6379-1.424 1.4247 0 0.7867 0.637 1.4034 1.424 1.4034h2.212v2.1263c-0.83 0.5954-1.872 0.8931-3.084 0.8931-2.636 0-4.507-1.9988-4.507-4.7205v-0.0425c0-2.5304 1.892-4.6355 4.274-4.6355 1.424 0 2.339 0.3615 3.253 1.0207 0.234 0.1701 0.51 0.3402 0.999 0.3402 0.915 0 1.616-0.7017 1.616-1.616 0-0.6592-0.361-1.0845-0.68-1.3184-1.361-0.9356-2.807-1.4459-5.082-1.4459-4.508 0-7.8038 3.4659-7.8038 7.6974v0.0425c0 4.4228 3.1898 7.6549 7.8248 7.6549zm9.658-1.7649c0 0.9143 0.723 1.6373 1.637 1.6373s1.637-0.723 1.637-1.6373v-11.865c0-0.9144-0.723-1.6373-1.637-1.6373s-1.637 0.7229-1.637 1.6373v11.865zm5.973 0.1063c0 0.8506 0.659 1.531 1.51 1.531 0.68 0 1.233-0.3615 1.51-1.0207l1.042-2.4453h6.549l0.999 2.339c0.319 0.6805 0.808 1.127 1.574 1.127 0.871 0 1.552-0.7017 1.552-1.5735 0-0.1914-0.064-0.404-0.17-0.6592l-5.189-11.716c-0.361-0.8292-0.978-1.297-1.892-1.297h-0.191c-0.915 0-1.553 0.4678-1.914 1.297l-5.188 11.716c-0.107 0.2339-0.192 0.4678-0.192 0.7017zm5.274-4.8268 2.062-4.9119 2.063 4.9119h-4.125zm18.402 4.7418c0 0.9143 0.701 1.616 1.616 1.616 0.914 0 1.616-0.7017 1.616-1.616v-7.9738l6.549 8.5904c0.446 0.5741 0.914 0.9569 1.701 0.9569h0.106c0.915 0 1.638-0.723 1.638-1.6373v-11.844c0-0.9143-0.702-1.616-1.616-1.616-0.915 0-1.616 0.7017-1.616 1.616v7.6761l-6.316-8.2927c-0.446-0.5742-0.914-0.9569-1.701-0.9569h-0.34c-0.914 0-1.637 0.723-1.637 1.6373v11.844zm23.965 1.7436c2.232 0 3.997-0.7442 5.209-1.4885 0.766-0.4465 1.148-1.1482 1.148-2.0838v-3.6148c0-0.9143-0.723-1.6373-1.637-1.6373h-3.742c-0.787 0-1.425 0.6379-1.425 1.4247 0 0.7867 0.638 1.4034 1.425 1.4034h2.211v2.1263c-0.829 0.5954-1.871 0.8931-3.083 0.8931-2.637 0-4.508-1.9988-4.508-4.7205v-0.0425c0-2.5304 1.892-4.6355 4.274-4.6355 1.425 0 2.339 0.3615 3.253 1.0207 0.234 0.1701 0.511 0.3402 1 0.3402 0.914 0 1.616-0.7017 1.616-1.616 0-0.6592-0.362-1.0845-0.681-1.3184-1.361-0.9356-2.807-1.4459-5.082-1.4459-4.508 0-7.803 3.4659-7.803 7.6974v0.0425c0 4.4228 3.189 7.6549 7.825 7.6549zm8.487-1.6586c0 0.8506 0.66 1.531 1.51 1.531 0.681 0 1.233-0.3615 1.51-1.0207l1.042-2.4453h6.549l0.999 2.339c0.319 0.6805 0.808 1.127 1.574 1.127 0.872 0 1.552-0.7017 1.552-1.5735 0-0.1914-0.064-0.404-0.17-0.6592l-5.188-11.716c-0.362-0.8292-0.978-1.297-1.893-1.297h-0.191c-0.914 0-1.552 0.4678-1.914 1.297l-5.188 11.716c-0.106 0.2339-0.192 0.4678-0.192 0.7017zm5.274-4.8268 2.062-4.9119 2.063 4.9119h-4.125zm14.008 4.7205c0 0.9143 0.723 1.6373 1.637 1.6373s1.637-0.723 1.637-1.6373v-4.2952l4.806-6.4854c0.234-0.3189 0.425-0.7017 0.425-1.1482 0-0.9144-0.595-1.5948-1.595-1.5948-0.68 0-1.169 0.3828-1.573 0.9781l-3.679 5.2521-3.614-5.2095c-0.404-0.5954-0.872-0.9994-1.616-0.9994-0.915 0-1.638 0.7017-1.638 1.5735 0 0.489 0.17 0.8505 0.404 1.1695l4.806 6.5279v4.2314z" fill="#000"/>
<defs>
<linearGradient id="b" x1="48.837" x2="176.49" y1="-40.747" y2="86.914" gradientUnits="userSpaceOnUse">
<stop stop-color="#FAF20B" offset="0"/>
<stop stop-color="#FBC406" offset=".25"/>
<stop stop-color="#FCA103" offset=".48"/>
<stop stop-color="#FD8B01" offset=".67"/>
<stop stop-color="#FD8300" offset=".8"/>
<stop stop-color="#F09202" offset="1"/>
</linearGradient>
<linearGradient id="a" x1="-151.68" x2="159.57" y1="-3.9178" y2="71.061" gradientUnits="userSpaceOnUse">
<stop stop-color="#FAF2FF" offset="0"/>
<stop stop-color="#FEFBFF" offset=".68229"/>
<stop stop-color="#fff" stop-opacity="0" offset="1"/>
</linearGradient>
</defs>
</svg>
